Herramientas Cuantitativas para el Análisis Político
…
# Iteración 

## Ejemplo de escritura de múltiples archivos

```r
library(electorAr)

datos <- get_election_data(district = "arg", category = "presi", round = "gral", year = 2003) %>% 
    get_names()

datos
## # A tibble: 480 x 9
## # Groups:   codprov [24]
##    category round  year codprov name_prov electores listas votos nombre_lista   
##    <chr>    <chr> <dbl> <chr>   <chr>         <dbl> <chr>  <dbl> <chr>          
##  1 presi    gral   2003 01      CABA        2590435 0001    2985 Mov. de Integr~
##  2 presi    gral   2003 01      CABA        2590435 0003   16216 Unión Cívica R~
##  3 presi    gral   2003 01      CABA        2590435 0005    6324 Partido Demócr~
##  4 presi    gral   2003 01      CABA        2590435 0014   14828 Partido Obrero 
##  5 presi    gral   2003 01      CABA        2590435 0022   16371 Partido Humani~
##  6 presi    gral   2003 01      CABA        2590435 0030    7302 Partido Social~
##  7 presi    gral   2003 01      CABA        2590435 0037    1843 Mov. por la Di~
##  8 presi    gral   2003 01      CABA        2590435 0050   50703 Partido Social~
##  9 presi    gral   2003 01      CABA        2590435 0051    4264 Partido Popula~
## 10 presi    gral   2003 01      CABA        2590435 0053   15948 Conf. Para que~
## # ... with 470 more rows
```
…
# Iteración 

## Ejemplo de escritura de múltiples archivos

```r

nested <- datos %>% 
  group_by(name_prov) %>% 
  nest()

nested
## # A tibble: 24 x 2
## # Groups:   name_prov [24]
##    name_prov    data             
##    <chr>        <list>           
##  1 CABA         <tibble [20 x 8]>
##  2 BUENOS AIRES <tibble [20 x 8]>
##  3 CATAMARCA    <tibble [20 x 8]>
##  4 CORDOBA      <tibble [20 x 8]>
##  5 CORRIENTES   <tibble [20 x 8]>
##  6 CHACO        <tibble [20 x 8]>
##  7 CHUBUT       <tibble [20 x 8]>
##  8 ENTRE RIOS   <tibble [20 x 8]>
##  9 FORMOSA      <tibble [20 x 8]>
## 10 JUJUY        <tibble [20 x 8]>
## # ... with 14 more rows
```
…
---

background-image: url(https://github.com/rstudio/hex-stickers/raw/master/PNG/ggplot2.png)
background-position: 95% 10%
background-size: 10%

# Data Viz

### `millas` del   [paquete `{datos}`](https://cienciadedatos.github.io/datos/)

```r
library(tidyverse)
library(datos)
dplyr::as_tibble(millas)
## # A tibble: 234 x 11
##    fabricante modelo     cilindrada  anio cilindros transmision traccion ciudad
##    <chr>      <chr>           <dbl> <int>     <int> <chr>       <chr>     <int>
##  1 audi       a4                1.8  1999         4 auto(l5)    d            18
##  2 audi       a4                1.8  1999         4 manual(m5)  d            21
##  3 audi       a4                2    2008         4 manual(m6)  d            20
##  4 audi       a4                2    2008         4 auto(av)    d            21
##  5 audi       a4                2.8  1999         6 auto(l5)    d            16
##  6 audi       a4                2.8  1999         6 manual(m5)  d            18
##  7 audi       a4                3.1  2008         6 auto(av)    d            18
##  8 audi       a4 quattro        1.8  1999         4 manual(m5)  4            18
##  9 audi       a4 quattro        1.8  1999         4 auto(l5)    4            16
## 10 audi       a4 quattro        2    2008         4 manual(m6)  4            20
## # ... with 224 more rows, and 3 more variables: autopista <int>,
## #   combustible <chr>, clase <chr>
```
…
